{
    "Name": "SQLAGOnExistingDomain",
    "Description": "Creates SQL Server 2014 AlwaysOn deployment. It requires existance of an active directory infrastructure.",
    "Version": "1.0.0",
    "Parameters": [
        {
            "Name": "Region",
            "Type": "String",
            "TypeHint": "AzureRegionName",
            "Description": "Azure region to which the infrastructure will be deployed."
        },
        {
            "Name": "AffinityGroup",
            "Type": "String",
            "TypeHint": "AzureAffinityGroupName",
            "Description": "Azure affinity group to which the infrastructure will be deployed."
        },
        {
            "Name": "VnetName",
            "Type": "String",
            "Description": "Name of Azure Virtual Network to be used for setting up SQL Availability Group. This should already exist."			
        },
		{
			"Name": "VnetAddressSpace",
			"Type": "String",
			"Description": "Address space of Azure Virtual Network to be used for setting up SQL Availability Group.",
			"Default":"10.0.0.0/8"
		},
		{
            "Name": "SqlSubnetName",
            "Type": "String",
            "Description": "Name of subnet ithin which SQL Availability Group VMs will be created.",
			"Default": "sqlag-cluster"
        },
		{
			"Name": "SqlSubnetAddressSpace",
			"Type": "String",
			"Description": "Address space of subnet within which SQL Availability Group VMs will be created.",
			"Default": "10.20.2.0/24"
		},
        {
            "Name": "DiskStore",
            "Type": "String",
            "TypeHint": "AzureStorageName",
            "Description": "Name of Azure storage account for creating VM disks. Will be created only if it does not already exists. If it exists then it should lie in the specified affinity group."
        },
		{
            "Name": "FQDN",
            "Type": "String",
            "TypeHint": "domain",
            "Description": "Fully qualified domain name for setting up active directory in the specified Azure Virtual Network. The AD setup for the corresponding should",
            "Minimum": 1,
            "Maximum": 64
        },
		{
			  "Name": "Domain",
			  "Type": "String",
			  "TypeHint": "domain",
			  "Description": "NetBios domain name.",
			  "Minimum": 1.0,
			  "Maximum": 64.0
		},               
        {
            "Name": "CloudService",
            "Type": "String",
            "TypeHint": "AzureCloudServiceName",
            "Description": "Name of the SQL Availability Group Azure Cloud Service."
        },		
		{
            "Name": "VMSize",
            "Type": "String",
            "TypeHint": "AzureRoleSize",
            "Description": "Size of the SQL VM.",
            "Default": "Small"
        },
        {
            "Name": "AdminName",
            "Type": "String",
            "TypeHint": "username",
            "Description": "Name of local administrator account.",
            "Minimum": 1,
            "Maximum": 64
        },
        {
            "Name": "AdminPassword",
            "Type": "String",
            "TypeHint": "password",
            "Description": "Password of local administrator account.",
            "MaskValue": true,
            "Minimum": 8,
            "Maximum": 127
        },
		{
            "Name": "DomainJoinUserName",
            "Type": "String",
            "TypeHint": "username",
            "Description": "Domain user account which is to be used for joining the SQL Availability Group VMs to domain. This user account must be a member of the group 'Domain Admins'.",
            "Minimum": 1,
            "Maximum": 64
        },
        {
            "Name": "DomainJoinUserPassword",
            "Type": "String",
            "TypeHint": "password",
            "Description": "Password of user account which is to be used for joining the SQL Availability Group VMs to domain.",
            "MaskValue": true,
            "Minimum": 8,
            "Maximum": 127
        },
        {
            "Name": "DSRMPassPhrase",
            "Type": "String",
            "TypeHint": "password",
            "Description": "Safemode Password for domain",
            "MaskValue": true,
            "Minimum": 8,
            "Maximum": 127
        },
		{
            "Name": "AvailabilityGroupName",
            "Type": "String",
            "Description": "Name of SQL Server Availability Group. This has to be unique in the domain(setup within the virtual network).",
            "Minimum": 1,
            "Maximum": 32
        },
		{
            "Name": "DatabaseName",
            "Type": "String",
            "Description": "Name of the database which is to be added to the SQL Server Availability Group. This is optional.",
            "Maximum": 64,
			"Default":""
        },
        {
            "Name": "NumberOfSQLNodes",
            "Type": "Number",
            "Description": "No of SQL nodes. A minimum of two are required to create SQL Server Availability Group.",
            "Default": 2,
            "Minimum": 2,
            "Maximum": 5
        },
        {
            "Name": "SqlAdminPassword",
            "Type": "String",
            "TypeHint": "password",
            "Description": "Password for SQL 'sa' account.",
            "Minimum": 1,
            "Maximum": 64
        },
        {
            "Name": "SqlSvcAccountName",
            "Type": "String",
            "TypeHint": "username",
            "Description": "Name of SQL service account.",
            "Minimum": 1,
            "Maximum": 64
        },
        {
            "Name": "SqlSvcAccountPassword",
            "Type": "String",
            "TypeHint": "password",
            "Description": "Password of SQL service account.",
            "MaskValue": true,
            "Minimum": 1,
            "Maximum": 64
        }
		{% assign ClusterName = AvailabilityGroupName | append: 'Cluster' -%}
    ],
    "Network": {       
        "VirtualSites": [
            {
                "Name": "{{VnetName}}",
                "AffinityGroup": "{{AffinityGroup}}",
                "AddressSpace": [
                    "{{VnetAddressSpace}}"
                ],
                "Subnets": [                    
                    {
                        "Name": "{{SqlSubnetName}}",
                        "AddressPrefix": "{{SqlSubnetAddressSpace}}"
                    }
                ]
            }
        ]
    },
    "AffinityGroup": {
        "Name": "{{AffinityGroup}}",
        "Region": "{{Region}}",
        "Label": "Created by Brewmaster"
    },
    "StorageAccounts": [
        {
            "Name": "{{DiskStore}}",
            "AffinityGroup": "{{AffinityGroup}}",
            "Region": "{{Region}}",
            "Description": "A non-georedundant disk store",
            "DisableGeoReplication": true
        }
    ],	
    "CloudServices": [        
        {
            "Name": "{{CloudService}}",
            "AffinityGroup": "{{AffinityGroup}}",
            "Region": "{{Region}}",
            "Description": "SQL Server AlwaysOn deployment",
            "Deployment": {                
                "VirtualNetwork": "{{VnetName}}",
                "VirtualMachines": [
                    {
                        "Name": "quorum",
                        "RoleSize": "Small",
                        "Subnets": [
                            "{{SqlSubnetName}}"
                        ],
                        "AvailabilitySet": "sqlag-avs",
                        "OsVirtualDisk": {
                            "OsType": "Windows",
                            "OsImageName": "a699494373c04fc0bc8f2bb1389d6106__Windows-Server-2012-R2-*"
                        },
                        "DataVirtualDisks": [
                            {
                                "DiskId": "disk0",
                                "Lun": 0,
                                "LogicalSizeInGB": 40
                            }
                        ],
                        "WindowsConfigSet": {
                            "LocalAdminCredentialId": "DomainAdmin:local",
                            "EnableAutomaticUpdates": false,
                            "ChangePasswordAtLogon": false,
                            "DisableRdp": false,
                            "DomainJoinSettings": {
                                "DomainToJoin": "{{FQDN}}",
                                "CredentialId": "DomainJoinCred"
                            }
                        },
                        "ConfigSets": [
                            "SSAONode",
                            "FailoverCluster"
                        ]
                    }
{% for i in (1..NumberOfSQLNodes) -%}
                    ,{
                        "Name": "sql{{i}}",
                        "RoleSize": "{{VMSize}}",
                        "Subnets": [
                            "{{SqlSubnetName}}"
                        ],
                        "AvailabilitySet": "sqlag-avs",
                        "OsVirtualDisk": {
                            "OsType": "Windows",
                            "OsImageName": "fb83b3509582419d99629ce476bcb5c8__SQL-Server-2014-RTM-12.0.2361.0-Enterprise-ENU-Win2012R2-cy14su05"
                        },
                        "DataVirtualDisks": [
                            {
                                "DiskId": "disk0",
                                "Lun": 0,
                                "LogicalSizeInGB": 40
                            }
                        ],
                        "WindowsConfigSet": {
                            "LocalAdminCredentialId": "DomainAdmin:local",
                            "EnableAutomaticUpdates": false,
                            "ChangePasswordAtLogon": false,
                            "DisableRdp": false,
                            "DomainJoinSettings": {
                                "DomainToJoin": "{{FQDN}}",
                                "CredentialId": "DomainJoinCred"
                            }
                        },
                        "ConfigSets": [
                            "SSAONode",
                            "FailoverCluster",
                            "SqlAlwaysOnNode"
                        ]
                    }
{% endfor -%}
                ],
                "DiskStorageAccount": "{{DiskStore}}"
            }
        }
    ],   
    "Credentials": [        
        {
            "Name": "DomainAdmin:local",
            "UserName": "{{AdminName}}",
            "Password": "{{AdminPassword}}"
        },
        {
            "Name": "DomainJoinCred",
            "UserName": "{{Domain}}\\{{DomainJoinUserName}}",
            "Password": "{{DomainJoinUserPassword}}"
        }
    ],
    "ConfigSets": [        
        {
            "Name": "SSAONode",
            "Description": "All VMs within the SqlAlwaysOn deployment. This is typically made of the SQL nodes and a single quorum node.",
            "Endpoints": [],
            "ConfigurationIds": [
                "InitializeSSAONode"
            ]
        },
        {
            "Name": "FailoverCluster",
            "Description": "Failover cluster setup",
            "Endpoints": [],
            "ConfigurationIds": [
                "SetupFailoverCluster"
            ]
        },
        {
            "Name": "SqlAlwaysOnNode",
            "Description": "All SQL VMs within the SqlAlwaysOn deployment.",
            "Endpoints": [
                {
                    "Name": "AGListener",
                    "LocalPort": 1433,
                    "Protocol": "tcp",
                    "Port": 1433,
                    "EnableDirectServerReturn": true,
                    "Rules": [],
                    "LoadBalancerProbe": {
                        "Name": "AGListener-LB",
                        "Protocol": "tcp",
                        "Port": 59999
                    }
                }
            ],
            "ConfigurationIds": [
                "SetupSqlAlwaysOn"
            ]
        }
    ],
    "Configurations": [        
        {
            "Name": "InitializeSSAONode",
            "Description": "Initializes VMs in the SqlServerAlwaysOn cloud service",
            "Resources": [
                {
                    "Type": "xFormatDisks",
                    "ImportModule": "xAzureDataDisks",
                    "ImportTypeName": "ADITI_xFormatDisks",
                    "Name": "FormatRawDisks",
                    "Args": {
                        "FirstDriveLetter": "F"
                    }
                },
                {
                    "Type": "WindowsFeature",
                    "ImportModule": null,
                    "ImportTypeName": null,
                    "Name": "FailoverClustering",
                    "Args": {
                        "Name": "Failover-Clustering",
                        "Ensure": "Present",
                        "IncludeAllSubFeature": "true",
                        "LogPath": "%BrewmasterDir%\\Logs\\Install-FailoverCluster.log"
                    }
                },
                {
                    "Type": "WindowsFeature",
                    "ImportModule": null,
                    "ImportTypeName": null,
                    "Name": "RSATClusteringMgmt",
                    "Args": {
                        "Name": "RSAT-Clustering-Mgmt",
                        "Ensure": "Present",
                        "IncludeAllSubFeature": "true",
                        "LogPath": "%BrewmasterDir%\\Logs\\Install-RSATClusteringMgmt.log"
                    },
                    "Requires": [
                        "[WindowsFeature]FailoverClustering"
                    ]
                },
                {
                    "Type": "WindowsFeature",
                    "ImportModule": null,
                    "ImportTypeName": null,
                    "Name": "RSATClusteringPowerShell",
                    "Args": {
                        "Name": "RSAT-Clustering-PowerShell",
                        "Ensure": "Present",
                        "IncludeAllSubFeature": "true",
                        "LogPath": "%BrewmasterDir%\\Logs\\Install-RSATClusteringPowershell.log"
                    },
                    "Requires": [
                        "[WindowsFeature]RSATClusteringMgmt"
                    ]
                },
                {
                    "Type": "WindowsFeature",
                    "ImportModule": null,
                    "ImportTypeName": null,
                    "Name": "RSATClusteringCmdInterface",
                    "Args": {
                        "Name": "RSAT-Clustering-CmdInterface",
                        "Ensure": "Present",
                        "IncludeAllSubFeature": "true",
                        "LogPath": "%BrewmasterDir%\\Logs\\Install-RSATClusteringCmdInterface.log"
                    },
                    "Requires": [
                        "[WindowsFeature]RSATClusteringPowerShell"
                    ]
                },
                {
                    "Type": "WindowsFeature",
                    "ImportModule": null,
                    "ImportTypeName": null,
                    "Name": "RSATADPowershell",
                    "Args": {
                        "Name": "RSAT-AD-Powershell",
                        "Ensure": "Present",
                        "IncludeAllSubFeature": "true",
                        "LogPath": "%BrewmasterDir%\\Logs\\Install-RSATADPowershell.log"
                    },
                    "Nodes": [
                        "{{CloudService}}.sql1"
                    ]
                },
                {
                    "Type": "xADUser",
                    "ImportModule": "xActiveDirectory",
                    "ImportTypeName": "MSFT_xADUser",
                    "Name": "CreateSqlServiceDomainAccount",
                    "Args": {
                        "DomainName": "{{FQDN}}",
                        "DomainAdministratorCredential": "%%New-Object PSCredential '{{Domain}}\\{{DomainJoinUserName}}', (ConvertTo-SecureString '{{DomainJoinUserPassword}}' -AsPlainText -Force)",
                        "UserName": "{{SqlSvcAccountName}}",
                        "Password": "%%New-Object PSCredential '{{Domain}}\\{{SqlSvcAccountName}}', (ConvertTo-SecureString '{{SqlSvcAccountPassword}}' -AsPlainText -Force)",
                        "Ensure": "Present"
                    },
                    "Nodes": [
                        "{{CloudService}}.sql1"
                    ],
                    "Requires": [
                        "[WindowsFeature]RSATADPowershell"
                    ]
                },
                {
                    "Type": "File",
                    "ImportModule": null,
                    "ImportTypeName": null,
                    "Name": "CreateBackupFolder",
                    "Args": {
                        "DestinationPath": "F:\\backup",
                        "Type": "Directory",
                        "Ensure": "Present",
                        "Force": "False"
                    },
                    "Nodes": [
                        "{{CloudService}}.quorum"
                    ]
                },
                {
                    "Type": "File",
                    "ImportModule": null,
                    "ImportTypeName": null,
                    "Name": "CreateQuorumFolder",
                    "Args": {
                        "DestinationPath": "F:\\quorum",
                        "Type": "Directory",
                        "Ensure": "Present",
                        "Force": "False"
                    },
                    "Nodes": [
                        "{{CloudService}}.quorum"
                    ]
                },
                {
                    "Type": "xSmbShare",
                    "ImportModule": "xSmbShare",
                    "ImportTypeName": "MSFT_xSmbShare",
                    "Name": "CreateBackupShare",
                    "Args": {
                        "Name": "backup",
                        "Path": "F:\\backup",
                        "FullAccess": "everyone",
                        "Ensure": "Present",
                        "Description": "Database [{{DatabaseName}}] backup folder"
                    },
                    "Nodes": [
                        "{{CloudService}}.quorum"
                    ],
                    "Requires": [
                        "[File]CreateQuorumFolder"
                    ],
                    "Description": null
                },
                {
                    "Credential": "DomainAdmin:local",
                    "Type": "Script",
                    "ImportModule": null,
                    "ImportTypeName": null,
                    "Name": "AddDomainAdminToLocalAdminGroup",
                    "GetScript": "@{ exists = (net localgroup administrators) -contains $acctname }",
                    "SetScript": "$users = (net localgroup administrators)\r\nif ($users -notcontains $acctname)\r\n{\r\n\tWrite-Verbose \"Adding [$acctname] to local administators group.\"\r\n\tnet localgroup administrators $acctname /Add | Out-Null\r\n}",
                    "TestScript": null,
                    "Args": {
                        "acctname": "{{Domain}}\\{{DomainJoinUserName}}"
                    }
                }
            ]
        },
        {
            "Name": "SetupFailoverCluster",
            "Description": "Create failover cluster",
            "Resources": [
                {
                    "Type": "xAzureCluster",
                    "ImportModule": "xAzureFailOverCluster",
                    "ImportTypeName": "ADITI_xAzureCluster",
                    "Name": "CreateFailoverCluster",
                    "Args": {
                        "Name": "{{ClusterName}}",
                        "NumberOfSQLNodes": "%%{{NumberOfSQLNodes}}",
                        "DomainAdministratorCredential": "%%New-Object PSCredential '{{Domain}}\\{{DomainJoinUserName}}', (ConvertTo-SecureString '{{DomainJoinUserPassword}}' -AsPlainText -Force)"
                    },
                    "Nodes": [
                        "{{CloudService}}.sql1"
                    ]
                },
				{
                    "Type": "xWaitForAzureCluster",
                    "ImportModule": "xAzureFailOverCluster",
                    "ImportTypeName": "ADITI_xWaitForAzureCluster",
                    "Name": "WaitForFailoverCluster",
                    "Args": {
                        "Name": "{{ClusterName}}",
                        "RetryIntervalSec": "%%10",
                        "RetryCount": "%%100",
                        "DomainAdministratorCredential": "%%New-Object PSCredential '{{Domain}}\\{{DomainJoinUserName}}', (ConvertTo-SecureString '{{DomainJoinUserPassword}}' -AsPlainText -Force)"
                    }
                },
                {
                    "Type": "xSmbShare",
                    "ImportModule": "xSmbShare",
                    "ImportTypeName": "MSFT_xSmbShare",
                    "Name": "CreateQuorumShare",
                    "Args": {
                        "Name": "quorum",
                        "Path": "F:\\quorum",
                        "FullAccess": "%%\"{{Domain}}\\{{DomainJoinUserName}}\",\"{{Domain}}\\{{ClusterName}}$\"",
                        "Ensure": "Present",
                        "Description": "Failover cluster [{{ClusterName}}] quorum file share"
                    },
                    "Nodes": [
                        "{{CloudService}}.quorum"
                    ],
                    "Requires": [
                        "[xWaitForAzureCluster]WaitForFailoverCluster"
                    ]
                },
				{
                    "Type": "xWaitForAzureClusterQuorumShare",
                    "ImportModule": "xAzureFailOverCluster",
                    "ImportTypeName": "ADITI_xWaitForAzureClusterQuorumShare",
                    "Name": "WaitForClusterQuorumShare",
                    "Args": {
                        "QuorumShare": "\\\\quorum\\quorum",
                        "RetryIntervalSec": "%%10",
                        "RetryCount": "%%60",
                        "DomainAdministratorCredential": "%%New-Object PSCredential '{{Domain}}\\{{DomainJoinUserName}}', (ConvertTo-SecureString '{{DomainJoinUserPassword}}' -AsPlainText -Force)"
                    },
                    "Nodes": [
                        "{{CloudService}}.sql1"
                    ]
                },
                {
                    "Type": "xAzureClusterQuorumMode",
                    "ImportModule": "xAzureFailOverCluster",
                    "ImportTypeName": "ADITI_xAzureClusterQuorumMode",
                    "Name": "CreateClusterQuorumNode",
                    "Args": {
                        "QuorumShare": "\\\\quorum\\quorum",
                        "DomainAdministratorCredential": "%%New-Object PSCredential '{{Domain}}\\{{DomainJoinUserName}}', (ConvertTo-SecureString '{{DomainJoinUserPassword}}' -AsPlainText -Force)"
                    },
                    "Nodes": [
                        "{{CloudService}}.sql1"
                    ],
                    "Requires": [
                        "[xWaitForAzureClusterQuorumShare]WaitForClusterQuorumShare"
                    ]
                }
            ]
        },
        {
            "Name": "SetupSqlAlwaysOn",
            "Description": "Setup SQL AlwaysOn",
            "Resources": [
                {
                    "Type": "xFirewall",
                    "ImportModule": "xNetworking",
                    "ImportTypeName": "MSFT_xFirewall",
                    "Name": "SqlServerTcpInRule",
                    "Args": {
                        "Name": "SQLServerTCPIn",
                        "Description": "SQL Server (TCP In)",
                        "LocalPort": "1433",
                        "Protocol": "TCP",
                        "Access": "Allow",
                        "State": "Enabled",
                        "Direction": "Inbound"
                    }
                },
                {
                    "Type": "xFirewall",
                    "ImportModule": "xNetworking",
                    "ImportTypeName": "MSFT_xFirewall",
                    "Name": "SqlServerHAReplicaRule",
                    "Args": {
                        "Name": "SQLServerHAReplica",
                        "Description": "SQL High Availability Replica Endpoint",
                        "LocalPort": "5022",
                        "Protocol": "TCP",
                        "Access": "Allow",
                        "State": "Enabled",
                        "Direction": "Inbound"
                    }
                },
				{
                    "Type": "xFirewall",
                    "ImportModule": "xNetworking",
                    "ImportTypeName": "MSFT_xFirewall",
                    "Name": "SqlServerLoadBalancedEndpointRule",
                    "Args": {
                        "Name": "SQL AG Listener LB Probe (TCP-In)",
                        "Description": "SQL AG Listener LB Probe (TCP-In)",
                        "LocalPort": "59999",
                        "Protocol": "TCP",
                        "Access": "Allow",
                        "State": "Enabled",
                        "Direction": "Inbound"
                    }
                },
                {
                    "Credential": "DomainAdmin:local",
                    "Type": "Script",
                    "ImportModule": null,
                    "ImportTypeName": null,
                    "Name": "ConfigureSqlDbaAccount",
                    "GetScript": "@{ SqlSvrAdminAcct = Invoke-SqlCmd -Query \"exec sp_helpsrvrolemember 'sysadmin'\" -ServerInstance '.' -EA Continue | where MemberName -eq 'sa' }",
                    "SetScript": "[System.Reflection.Assembly]::LoadWithPartialName('Microsoft.SqlServer.SMO')\r\n$s = new-object ('Microsoft.SqlServer.Management.Smo.Server') $env:COMPUTERNAME\r\n$s.Settings.LoginMode = [Microsoft.SqlServer.Management.SMO.ServerLoginMode]::Mixed\r\n$s.Alter()\r\n$list = Get-Service -Name MSSQL*\r\nforeach ($s in $list)\r\n{\r\n   Set-Service -Name $s.Name -StartupType Automatic\r\n   if ($s.Status -ne \"Stopped\")\r\n   {\r\n       $s.Stop()\r\n       $s.WaitForStatus(\"Stopped\")\r\n       $s.Refresh()\r\n   }\r\n   if ($s.Status -ne \"Running\")\r\n   {\r\n      $s.Start()\r\n      $s.WaitForStatus(\"Running\")\r\n      $s.Refresh()\r\n   }\r\n}\r\nInvoke-SqlCmd -Query \"ALTER LOGIN sa ENABLE\" -ServerInstance \".\"\r\nInvoke-SqlCmd -Query \"ALTER LOGIN sa WITH PASSWORD = '$SqlAdminPassword'\" -ServerInstance \".\"\r\n",
                    "TestScript": null,
                    "Args": {
                        "SqlAdminPassword": "{{SqlAdminPassword}}"
                    },
                    "Nodes": [],
                    "Requires": [
                        "[xFirewall]SqlServerTcpInRule",
                        "[xFirewall]SqlServerHAReplicaRule",
                        "[xFirewall]SqlServerLoadBalancedEndpointRule"
                    ],
                    "Description": "Enables SQL authentication and the built-in sa account"
                },
                {
                    "Type": "xSqlHAService",
                    "ImportModule": "xAzureAvailabilityGroup",
                    "ImportTypeName": "MSFT_xSqlHAService",
                    "Name": "EnableSqlAlwaysOn",
                    "Args": {
                        "InstanceName": "%%$env:COMPUTERNAME",
                        "SqlAdministratorCredential": "%%New-Object PSCredential 'sa', (ConvertTo-SecureString '{{SqlAdminPassword}}' -AsPlainText -Force)",
                        "ServiceCredential": "%%New-Object PSCredential '{{Domain}}\\{{SqlSvcAccountName}}', (ConvertTo-SecureString '{{SqlSvcAccountPassword}}' -AsPlainText -Force)"
                    },
                    "Requires": [
                        "[Script]ConfigureSqlDbaAccount"
                    ]
                },
				{
                    "Credential": "DomainAdmin:local",
                    "Type": "Script",
                    "ImportModule": null,
                    "ImportTypeName": null,
                    "Name": "CreateSqlAlwaysOnEndpoint",
                    "GetScript": "@{ ServerInstance = $env:COMPUTERNAME; AllowedUser = $ServiceAccount; EndPointName = $EndPointName; PortNumber = $EndPointPort; Configured = [bool] [int](OSQL -S $InstanceName -E -Q \"select count(*) from master.sys.endpoints where name = '$EndPointName'\" -h-1)[0] }",
                    "SetScript": "\r\n$serverPath   = \"SQLSERVER:\\SQL\\$env:COMPUTERNAME\\Default\"\r\n$endpointPath = \"$serverPath\\Endpoints\\$EndpointName\"\r\nNew-SqlHadrEndpoint -Path $serverPath -Name $EndPointName -Port $EndPointPort -EA Stop | Out-Null\r\nWrite-Verbose \"Created Endpoint [$endpointName] on port [$endpointPort]\"\r\nSet-SqlHadrEndpoint -Path $endpointPath -State \"Started\" -EA Continue | Out-Null\r\nWrite-Verbose \"Starting Endpoint [$EndPointName] (if not already started)\"\r\nInvoke-SqlCmd -Query \"GRANT CONNECT ON ENDPOINT::[$EndPointName] TO [$SqlServiceAccount]\" -ServerInstance $env:COMPUTERNAME\r\nWrite-Verbose \"Granting endpoint connect permissions to [$SqlServiceAccount]\"",
                    "TestScript": "$endpoint = OSQL -S $env:COMPUTERNAME -E -Q \"select count(*) from master.sys.endpoints where name = '$EndPointName'\" -h-1\r\nreturn ([bool] [int] $endpoint[0].Trim() )",
                    "Args": {
						"EndPointName": "MyMirroringEndpoint",
						"EndPointPort": "%%5022",
                        "SqlServiceAccount": "{{Domain}}\\{{SqlSvcAccountName}}"
                    },
                    "Requires": [
                        "[xSqlHAService]EnableSqlAlwaysOn"
                    ],
                    "Description": "Creates SQL Server mirroring endpoint for participating in availability group."
                },
				{
                    "Type": "xSqlHAGroup",
                    "ImportModule": "xAzureAvailabilityGroup",
                    "ImportTypeName": "ADITI_xSqlHAGroup",
                    "Name": "CreateAvailabilityGroup",
                    "Args": {
                        "Name": "{{AvailabilityGroupName}}",
                        "NumberOfSQLNodes": "{{NumberOfSQLNodes}}",
                        "SQLNodeNamePrefix": "sql",
                        "EndpointPort": "%%5022",
                        "SqlAdministratorCredential": "%%New-Object PSCredential 'sa', (ConvertTo-SecureString '{{SqlAdminPassword}}' -AsPlainText -Force)"
                    },
                    "Nodes": [
                        "{{CloudService}}.sql1"
                    ],
                    "Requires": [
                        "[Script]CreateSqlAlwaysOnEndpoint"
                    ]
                },
				{
                    "Type": "xWaitForSqlHAGroup",
                    "ImportModule": "xAzureAvailabilityGroup",
                    "ImportTypeName": "ADITI_xWaitForSqlHAGroup",
                    "Name": "WaitForAvailabilityGroup",
                    "Args": {
                        "Name": "{{AvailabilityGroupName}}",
                        "PrimaryReplicaInstanceName": "sql1",
                        "RetryIntervalSec": "%%10",
                        "RetryCount": "%%60",
                        "SqlAdministratorCredential": "%%New-Object PSCredential 'sa', (ConvertTo-SecureString '{{SqlAdminPassword}}' -AsPlainText -Force)"
                    }
                },
                {
                    "Type": "xSqlHADatabase",
                    "ImportModule": "xAzureAvailabilityGroup",
                    "ImportTypeName": "ADITI_xSqlHADatabase",
                    "Name": "SetupAGDatabase",
                    "Args": {
                        "AvailabilityGroupName": "{{AvailabilityGroupName}}",
                        "Database": "{{DatabaseName}}",
                        "DatabaseBackupPath": "\\\\quorum\\backup",
                        "SqlAdministratorCredential": "%%New-Object PSCredential 'sa', (ConvertTo-SecureString '{{SqlAdminPassword}}' -AsPlainText -Force)"
                    },
                    "Requires": [
                        "[xWaitForSqlHAGroup]WaitForAvailabilityGroup"
                    ]
                },
                {
                    "Type": "xAzureAvailabilityGroupListener",
                    "ImportModule": "xAzureAvailabilityGroupListener",
                    "ImportTypeName": "ADITI_xAzureAvailabilityGroupListener",
                    "Name": "CreateAGListener",
                    "Args": {
                        "Name": "{{AvailabilityGroupName}}Listener",
                        "ServiceName": "{{CloudService}}",
                        "AvailabilityGroupName": "{{AvailabilityGroupName}}",
                        "SqlAdministratorCredential": "%%New-Object PSCredential 'sa', (ConvertTo-SecureString '{{SqlAdminPassword}}' -AsPlainText -Force)",
                        "DomainAdministratorCredential": "%%New-Object PSCredential '{{Domain}}\\{{DomainJoinUserName}}', (ConvertTo-SecureString '{{DomainJoinUserPassword}}' -AsPlainText -Force)"
                    },
                    "Nodes": [
                        "{{CloudService}}.sql1"
                    ],
                    "Requires": [
                        "[xSqlHADatabase]SetupAGDatabase"
                    ]
                }
            ]
        }
    ]
}